6) System Modeling with CPU and Analog/codes/trace1.vcd
$date
     Jul 17, 2021       13:18:20
$end

$version
 SystemC 2.3.2-Accellera --- Jul 13 2021 11:48:01
$end

$timescale
     1 ns
$end

$scope module SystemC $end
$var wire    1  aaaaa  clk       $end
$var wire    1  aaaab  readIO       $end
$var wire    1  aaaac  writeIO       $end
$var wire   16  aaaad  AddrBus [15:0]  $end
$var wire   16  aaaae  DataBus [15:0]  $end
$var wire   16  aaaaf  DataFrom0 [15:0]  $end
$var wire   16  aaaag  DataFrom1 [15:0]  $end
$var wire    1  aaaah  startTimer       $end
$var wire    1  aaaai  timeOut       $end
$var wire    1  aaaaj  Enablereg0       $end
$var wire    1  aaaak  Enablereg1       $end
$var wire   16  aaaal  regIn1 [15:0]  $end
$var wire   16  aaaam  regIn0 [15:0]  $end
$upscope $end
$enddefinitions  $end

$comment
All initial values are dumped below at time 0 sec = 0 timescale units.
$end

$dumpvars
0aaaaa
xaaaab
1aaaac
b1111111100011000 aaaad
bZZZZZZZZZZZZZZZZ aaaae
bZZZZZZZZZZZZZZZZ aaaaf
bZZZZZZZZZZZZZZZZ aaaag
1aaaah
0aaaai
0aaaaj
0aaaak
b0 aaaal
b0 aaaam
$end

#5
1aaaaa
1aaaab
0aaaac
b1111111100011001 aaaad
b0 aaaae
0aaaah

#10
0aaaaa

#15
1aaaaa

#20
0aaaaa

#25
1aaaaa

#30
0aaaaa

#35
1aaaaa

#40
0aaaaa

#45
1aaaaa

#50
0aaaaa

#55
1aaaaa

#60
0aaaaa

#65
1aaaaa

#70
0aaaaa

#75
1aaaaa

#80
0aaaaa

#85
1aaaaa

#90
0aaaaa

#95
1aaaaa

#100
0aaaaa

#105
1aaaaa

#110
0aaaaa

#115
1aaaaa

#120
0aaaaa

#125
1aaaaa

#130
0aaaaa

#135
1aaaaa

#140
0aaaaa

#145
1aaaaa

#150
0aaaaa

#155
1aaaaa

#160
0aaaaa

#165
1aaaaa

#170
0aaaaa

#175
1aaaaa

#180
0aaaaa

#185
1aaaaa

#190
0aaaaa

#195
1aaaaa

#200
0aaaaa

#205
1aaaaa

#210
0aaaaa

#215
1aaaaa

#220
0aaaaa

#225
1aaaaa

#230
0aaaaa

#235
1aaaaa

#240
0aaaaa

#245
1aaaaa

#250
0aaaaa

#255
1aaaaa

#260
0aaaaa

#265
1aaaaa

#270
0aaaaa

#275
1aaaaa

#280
0aaaaa

#285
1aaaaa

#290
0aaaaa

#295
1aaaaa

#300
0aaaaa

#305
1aaaaa

#310
0aaaaa

#315
1aaaaa

#320
0aaaaa

#325
1aaaaa

#330
0aaaaa

#335
1aaaaa

#340
0aaaaa

#345
1aaaaa

#350
0aaaaa

#355
1aaaaa

#360
0aaaaa

#365
1aaaaa

#370
0aaaaa

#375
1aaaaa

#380
0aaaaa

#385
1aaaaa

#390
0aaaaa

#395
1aaaaa

#400
0aaaaa

#405
1aaaaa

#410
0aaaaa

#415
1aaaaa

#420
0aaaaa

#425
1aaaaa

#430
0aaaaa

#435
1aaaaa

#440
0aaaaa

#445
1aaaaa

#450
0aaaaa

#455
1aaaaa

#460
0aaaaa

#465
1aaaaa

#470
0aaaaa

#475
1aaaaa

#480
0aaaaa

#485
1aaaaa

#490
0aaaaa

#495
1aaaaa

#500
0aaaaa
b10000000000000 aaaal

#505
1aaaaa

#510
0aaaaa

#515
1aaaaa

#520
0aaaaa

#525
1aaaaa

#530
0aaaaa

#535
1aaaaa

#540
0aaaaa

#545
1aaaaa

#550
0aaaaa

#555
1aaaaa

#560
0aaaaa

#565
1aaaaa

#570
0aaaaa

#575
1aaaaa

#580
0aaaaa

#585
1aaaaa

#590
0aaaaa

#595
1aaaaa

#600
0aaaaa

#605
1aaaaa

#610
0aaaaa

#615
1aaaaa

#620
0aaaaa

#625
1aaaaa

#630
0aaaaa

#635
1aaaaa

#640
0aaaaa

#645
1aaaaa

#650
0aaaaa

#655
1aaaaa

#660
0aaaaa

#665
1aaaaa

#670
0aaaaa

#675
1aaaaa

#680
0aaaaa

#685
1aaaaa

#690
0aaaaa

#695
1aaaaa

#700
0aaaaa

#705
1aaaaa

#710
0aaaaa

#715
1aaaaa

#720
0aaaaa

#725
1aaaaa

#730
0aaaaa

#735
1aaaaa

#740
0aaaaa

#745
1aaaaa

#750
0aaaaa

#755
1aaaaa

#760
0aaaaa

#765
1aaaaa

#770
0aaaaa

#775
1aaaaa

#780
0aaaaa

#785
1aaaaa

#790
0aaaaa

#795
1aaaaa

#800
0aaaaa

#805
1aaaaa

#810
0aaaaa

#815
1aaaaa

#820
0aaaaa

#825
1aaaaa

#830
0aaaaa

#835
1aaaaa

#840
0aaaaa

#845
1aaaaa

#850
0aaaaa

#855
1aaaaa

#860
0aaaaa

#865
1aaaaa

#870
0aaaaa

#875
1aaaaa

#880
0aaaaa

#885
1aaaaa

#890
0aaaaa

#895
1aaaaa

#900
0aaaaa

#905
1aaaaa

#910
0aaaaa

#915
1aaaaa

#920
0aaaaa

#925
1aaaaa

#930
0aaaaa

#935
1aaaaa

#940
0aaaaa

#945
1aaaaa

#950
0aaaaa

#955
1aaaaa

#960
0aaaaa

#965
1aaaaa

#970
0aaaaa

#975
1aaaaa

#980
0aaaaa

#985
1aaaaa

#990
0aaaaa

#995
1aaaaa

#1000
0aaaaa
b100000000000000 aaaal

#1005
1aaaaa

#1010
0aaaaa

#1015
1aaaaa

#1020
0aaaaa

#1025
1aaaaa

#1030
0aaaaa

#1035
1aaaaa

#1040
0aaaaa

#1045
1aaaaa

#1050
0aaaaa

#1055
1aaaaa

#1060
0aaaaa

#1065
1aaaaa

#1070
0aaaaa

#1075
1aaaaa

#1080
0aaaaa

#1085
1aaaaa

#1090
0aaaaa

#1095
1aaaaa

#1100
0aaaaa

#1105
1aaaaa

#1110
0aaaaa

#1115
1aaaaa

#1120
0aaaaa

#1125
1aaaaa

#1130
0aaaaa

#1135
1aaaaa

#1140
0aaaaa

#1145
1aaaaa

#1150
0aaaaa

#1155
1aaaaa

#1160
0aaaaa

#1165
1aaaaa

#1170
0aaaaa

#1175
1aaaaa

#1180
0aaaaa

#1185
1aaaaa

#1190
0aaaaa

#1195
1aaaaa

#1200
0aaaaa

#1205
1aaaaa

#1210
0aaaaa

#1215
1aaaaa

#1220
0aaaaa

#1225
1aaaaa

#1230
0aaaaa

#1235
1aaaaa

#1240
0aaaaa

#1245
1aaaaa

#1250
0aaaaa

#1255
1aaaaa

#1260
0aaaaa

#1265
1aaaaa

#1270
0aaaaa

#1275
1aaaaa

#1280
0aaaaa

#1285
1aaaaa

#1290
0aaaaa

#1295
1aaaaa

#1300
0aaaaa

#1305
1aaaaa

#1310
0aaaaa

#1315
1aaaaa

#1320
0aaaaa

#1325
1aaaaa

#1330
0aaaaa

#1335
1aaaaa

#1340
0aaaaa

#1345
1aaaaa

#1350
0aaaaa

#1355
1aaaaa

#1360
0aaaaa

#1365
1aaaaa

#1370
0aaaaa

#1375
1aaaaa

#1380
0aaaaa

#1385
1aaaaa

#1390
0aaaaa

#1395
1aaaaa

#1400
0aaaaa

#1405
1aaaaa

#1410
0aaaaa

#1415
1aaaaa

#1420
0aaaaa

#1425
1aaaaa

#1430
0aaaaa

#1435
1aaaaa

#1440
0aaaaa

#1445
1aaaaa

#1450
0aaaaa

#1455
1aaaaa

#1460
0aaaaa

#1465
1aaaaa

#1470
0aaaaa

#1475
1aaaaa

#1480
0aaaaa

#1485
1aaaaa

#1490
0aaaaa

#1495
1aaaaa

#1500
0aaaaa
b101111111111111 aaaal

#1505
1aaaaa

#1510
0aaaaa

#1515
1aaaaa

#1520
0aaaaa

#1525
1aaaaa

#1530
0aaaaa

#1535
1aaaaa

#1540
0aaaaa

#1545
1aaaaa

#1550
0aaaaa

#1555
1aaaaa

#1560
0aaaaa

#1565
1aaaaa

#1570
0aaaaa

#1575
1aaaaa

#1580
0aaaaa

#1585
1aaaaa

#1590
0aaaaa

#1595
1aaaaa

#1600
0aaaaa

#1605
1aaaaa

#1610
0aaaaa

#1615
1aaaaa

#1620
0aaaaa

#1625
1aaaaa

#1630
0aaaaa

#1635
1aaaaa

#1640
0aaaaa

#1645
1aaaaa

#1650
0aaaaa

#1655
1aaaaa

#1660
0aaaaa

#1665
1aaaaa

#1670
0aaaaa

#1675
1aaaaa

#1680
0aaaaa

#1685
1aaaaa

#1690
0aaaaa

#1695
1aaaaa

#1700
0aaaaa

#1705
1aaaaa

#1710
0aaaaa

#1715
1aaaaa

#1720
0aaaaa

#1725
1aaaaa

#1730
0aaaaa

#1735
1aaaaa

#1740
0aaaaa

#1745
1aaaaa

#1750
0aaaaa

#1755
1aaaaa

#1760
0aaaaa

#1765
1aaaaa

#1770
0aaaaa

#1775
1aaaaa

#1780
0aaaaa

#1785
1aaaaa

#1790
0aaaaa

#1795
1aaaaa

#1800
0aaaaa

#1805
1aaaaa

#1810
0aaaaa

#1815
1aaaaa

#1820
0aaaaa

#1825
1aaaaa

#1830
0aaaaa

#1835
1aaaaa

#1840
0aaaaa

#1845
1aaaaa

#1850
0aaaaa

#1855
1aaaaa

#1860
0aaaaa

#1865
1aaaaa

#1870
0aaaaa

#1875
1aaaaa

#1880
0aaaaa

#1885
1aaaaa

#1890
0aaaaa

#1895
1aaaaa

#1900
0aaaaa

#1905
1aaaaa

#1910
0aaaaa

#1915
1aaaaa

#1920
0aaaaa

#1925
1aaaaa

#1930
0aaaaa

#1935
1aaaaa

#1940
0aaaaa

#1945
1aaaaa

#1950
0aaaaa

#1955
1aaaaa

#1960
0aaaaa

#1965
1aaaaa

#1970
0aaaaa

#1975
1aaaaa

#1980
0aaaaa

#1985
1aaaaa

#1990
0aaaaa

#1995
1aaaaa

#2000
0aaaaa
b0 aaaal

#2005
1aaaaa

#2010
0aaaaa

#2015
1aaaaa

#2020
0aaaaa

#2025
1aaaaa

#2030
0aaaaa

#2035
1aaaaa

#2040
0aaaaa

#2045
1aaaaa

#2050
0aaaaa

#2055
1aaaaa

#2060
0aaaaa

#2065
1aaaaa

#2070
0aaaaa

#2075
1aaaaa

#2080
0aaaaa

#2085
1aaaaa

#2090
0aaaaa

#2095
1aaaaa

#2100
0aaaaa

#2105
1aaaaa

#2110
0aaaaa

#2115
1aaaaa

#2120
0aaaaa

#2125
1aaaaa

#2130
0aaaaa

#2135
1aaaaa

#2140
0aaaaa

#2145
1aaaaa

#2150
0aaaaa

#2155
1aaaaa

#2160
0aaaaa

#2165
1aaaaa

#2170
0aaaaa

#2175
1aaaaa

#2180
0aaaaa

#2185
1aaaaa

#2190
0aaaaa

#2195
1aaaaa

#2200
0aaaaa

#2205
1aaaaa

#2210
0aaaaa

#2215
1aaaaa

#2220
0aaaaa

#2225
1aaaaa

#2230
0aaaaa

#2235
1aaaaa

#2240
0aaaaa

#2245
1aaaaa

#2250
0aaaaa

#2255
1aaaaa

#2260
0aaaaa

#2265
1aaaaa

#2270
0aaaaa

#2275
1aaaaa

#2280
0aaaaa

#2285
1aaaaa

#2290
0aaaaa

#2295
1aaaaa

#2300
0aaaaa

#2305
1aaaaa

#2310
0aaaaa

#2315
1aaaaa

#2320
0aaaaa

#2325
1aaaaa

#2330
0aaaaa

#2335
1aaaaa

#2340
0aaaaa

#2345
1aaaaa

#2350
0aaaaa

#2355
1aaaaa

#2360
0aaaaa

#2365
1aaaaa

#2370
0aaaaa

#2375
1aaaaa

#2380
0aaaaa

#2385
1aaaaa

#2390
0aaaaa

#2395
1aaaaa

#2400
0aaaaa

#2405
1aaaaa

#2410
0aaaaa

#2415
1aaaaa

#2420
0aaaaa

#2425
1aaaaa

#2430
0aaaaa

#2435
1aaaaa

#2440
0aaaaa

#2445
1aaaaa

#2450
0aaaaa

#2455
1aaaaa

#2460
0aaaaa

#2465
1aaaaa

#2470
0aaaaa

#2475
1aaaaa

#2480
0aaaaa

#2485
1aaaaa

#2490
0aaaaa

#2495
1aaaaa

#2500
0aaaaa

#2505
1aaaaa

#2510
0aaaaa

#2515
1aaaaa

#2520
0aaaaa

#2525
1aaaaa

#2530
0aaaaa

#2535
1aaaaa

#2540
0aaaaa

#2545
1aaaaa

#2550
0aaaaa

#2555
1aaaaa

#2560
0aaaaa

#2565
1aaaaa

#2570
0aaaaa

#2575
1aaaaa

#2580
0aaaaa

#2585
1aaaaa

#2590
0aaaaa

#2595
1aaaaa

#2600
0aaaaa

#2605
1aaaaa

#2610
0aaaaa

#2615
1aaaaa

#2620
0aaaaa

#2625
1aaaaa

#2630
0aaaaa

#2635
1aaaaa

#2640
0aaaaa

#2645
1aaaaa

#2650
0aaaaa

#2655
1aaaaa

#2660
0aaaaa

#2665
1aaaaa

#2670
0aaaaa

#2675
1aaaaa

#2680
0aaaaa

#2685
1aaaaa

#2690
0aaaaa

#2695
1aaaaa

#2700
0aaaaa

#2705
1aaaaa

#2710
0aaaaa

#2715
1aaaaa

#2720
0aaaaa

#2725
1aaaaa

#2730
0aaaaa

#2735
1aaaaa

#2740
0aaaaa

#2745
1aaaaa

#2750
0aaaaa

#2755
1aaaaa

#2760
0aaaaa

#2765
1aaaaa

#2770
0aaaaa

#2775
1aaaaa

#2780
0aaaaa

#2785
1aaaaa

#2790
0aaaaa

#2795
1aaaaa

#2800
0aaaaa

#2805
1aaaaa

#2810
0aaaaa

#2815
1aaaaa

#2820
0aaaaa

#2825
1aaaaa

#2830
0aaaaa

#2835
1aaaaa

#2840
0aaaaa

#2845
1aaaaa

#2850
0aaaaa

#2855
1aaaaa

#2860
0aaaaa

#2865
1aaaaa

#2870
0aaaaa

#2875
1aaaaa

#2880
0aaaaa

#2885
1aaaaa

#2890
0aaaaa

#2895
1aaaaa

#2900
0aaaaa

#2905
1aaaaa

#2910
0aaaaa

#2915
1aaaaa

#2920
0aaaaa

#2925
1aaaaa

#2930
0aaaaa

#2935
1aaaaa

#2940
0aaaaa

#2945
1aaaaa

#2950
0aaaaa

#2955
1aaaaa

#2960
0aaaaa

#2965
1aaaaa

#2970
0aaaaa

#2975
1aaaaa

#2980
0aaaaa

#2985
1aaaaa

#2990
0aaaaa

#2995
1aaaaa

#3000
0aaaaa

#3005
1aaaaa

#3010
0aaaaa

#3015
1aaaaa

#3020
0aaaaa

#3025
1aaaaa

#3030
0aaaaa

#3035
1aaaaa

#3040
0aaaaa

#3045
1aaaaa

#3050
0aaaaa

#3055
1aaaaa

#3060
0aaaaa

#3065
1aaaaa

#3070
0aaaaa

#3075
1aaaaa

#3080
0aaaaa

#3085
1aaaaa

#3090
0aaaaa

#3095
1aaaaa

#3100
0aaaaa

#3105
1aaaaa

#3110
0aaaaa

#3115
1aaaaa

#3120
0aaaaa

#3125
1aaaaa

#3130
0aaaaa

#3135
1aaaaa

#3140
0aaaaa

#3145
1aaaaa

#3150
0aaaaa

#3155
1aaaaa

#3160
0aaaaa

#3165
1aaaaa

#3170
0aaaaa

#3175
1aaaaa

#3180
0aaaaa

#3185
1aaaaa

#3190
0aaaaa

#3195
1aaaaa

#3200
0aaaaa

#3205
1aaaaa

#3210
0aaaaa

#3215
1aaaaa

#3220
0aaaaa

#3225
1aaaaa

#3230
0aaaaa

#3235
1aaaaa

#3240
0aaaaa

#3245
1aaaaa

#3250
0aaaaa

#3255
1aaaaa

#3260
0aaaaa

#3265
1aaaaa

#3270
0aaaaa

#3275
1aaaaa

#3280
0aaaaa

#3285
1aaaaa

#3290
0aaaaa

#3295
1aaaaa

#3300
0aaaaa

#3305
1aaaaa

#3310
0aaaaa

#3315
1aaaaa

#3320
0aaaaa

#3325
1aaaaa

#3330
0aaaaa

#3335
1aaaaa

#3340
0aaaaa

#3345
1aaaaa

#3350
0aaaaa

#3355
1aaaaa

#3360
0aaaaa

#3365
1aaaaa

#3370
0aaaaa

#3375
1aaaaa

#3380
0aaaaa

#3385
1aaaaa

#3390
0aaaaa

#3395
1aaaaa

#3400
0aaaaa

#3405
1aaaaa

#3410
0aaaaa

#3415
1aaaaa

#3420
0aaaaa

#3425
1aaaaa

#3430
0aaaaa

#3435
1aaaaa

#3440
0aaaaa

#3445
1aaaaa

#3450
0aaaaa

#3455
1aaaaa

#3460
0aaaaa

#3465
1aaaaa

#3470
0aaaaa

#3475
1aaaaa

#3480
0aaaaa

#3485
1aaaaa

#3490
0aaaaa

#3495
1aaaaa

#3500
0aaaaa

#3505
1aaaaa

#3510
0aaaaa

#3515
1aaaaa

#3520
0aaaaa

#3525
1aaaaa

#3530
0aaaaa

#3535
1aaaaa

#3540
0aaaaa

#3545
1aaaaa

#3550
0aaaaa

#3555
1aaaaa

#3560
0aaaaa

#3565
1aaaaa

#3570
0aaaaa

#3575
1aaaaa

#3580
0aaaaa

#3585
1aaaaa

#3590
0aaaaa

#3595
1aaaaa

#3600
0aaaaa

#3605
1aaaaa

#3610
0aaaaa

#3615
1aaaaa

#3620
0aaaaa

#3625
1aaaaa

#3630
0aaaaa

#3635
1aaaaa

#3640
0aaaaa

#3645
1aaaaa

#3650
0aaaaa

#3655
1aaaaa

#3660
0aaaaa

#3665
1aaaaa

#3670
0aaaaa

#3675
1aaaaa

#3680
0aaaaa

#3685
1aaaaa

#3690
0aaaaa

#3695
1aaaaa

#3700
0aaaaa

#3705
1aaaaa

#3710
0aaaaa

#3715
1aaaaa

#3720
0aaaaa

#3725
1aaaaa

#3730
0aaaaa

#3735
1aaaaa

#3740
0aaaaa

#3745
1aaaaa

#3750
0aaaaa

#3755
1aaaaa

#3760
0aaaaa

#3765
1aaaaa

#3770
0aaaaa

#3775
1aaaaa

#3780
0aaaaa

#3785
1aaaaa

#3790
0aaaaa

#3795
1aaaaa

#3800
0aaaaa

#3805
1aaaaa

#3810
0aaaaa

#3815
1aaaaa

#3820
0aaaaa

#3825
1aaaaa

#3830
0aaaaa

#3835
1aaaaa

#3840
0aaaaa

#3845
1aaaaa

#3850
0aaaaa

#3855
1aaaaa

#3860
0aaaaa

#3865
1aaaaa

#3870
0aaaaa

#3875
1aaaaa

#3880
0aaaaa

#3885
1aaaaa

#3890
0aaaaa

#3895
1aaaaa

#3900
0aaaaa

#3905
1aaaaa

#3910
0aaaaa

#3915
1aaaaa

#3920
0aaaaa

#3925
1aaaaa

#3930
0aaaaa

#3935
1aaaaa

#3940
0aaaaa

#3945
1aaaaa

#3950
0aaaaa

#3955
1aaaaa

#3960
0aaaaa

#3965
1aaaaa

#3970
0aaaaa

#3975
1aaaaa

#3980
0aaaaa

#3985
1aaaaa

#3990
0aaaaa

#3995
1aaaaa

#4000
0aaaaa
b101111111111111 aaaal

#4005
1aaaaa

#4010
0aaaaa

#4015
1aaaaa

#4020
0aaaaa

#4025
1aaaaa

#4030
0aaaaa

#4035
1aaaaa

#4040
0aaaaa

#4045
1aaaaa

#4050
0aaaaa

#4055
1aaaaa

#4060
0aaaaa

#4065
1aaaaa

#4070
0aaaaa

#4075
1aaaaa

#4080
0aaaaa

#4085
1aaaaa

#4090
0aaaaa

#4095
1aaaaa

#4100
0aaaaa

#4105
1aaaaa

#4110
0aaaaa

#4115
1aaaaa

#4120
0aaaaa

#4125
1aaaaa

#4130
0aaaaa

#4135
1aaaaa

#4140
0aaaaa

#4145
1aaaaa

#4150
0aaaaa

#4155
1aaaaa

#4160
0aaaaa

#4165
1aaaaa

#4170
0aaaaa

#4175
1aaaaa

#4180
0aaaaa

#4185
1aaaaa

#4190
0aaaaa

#4195
1aaaaa

#4200
0aaaaa

#4205
1aaaaa

#4210
0aaaaa

#4215
1aaaaa

#4220
0aaaaa

#4225
1aaaaa

#4230
0aaaaa

#4235
1aaaaa

#4240
0aaaaa

#4245
1aaaaa

#4250
0aaaaa

#4255
1aaaaa

#4260
0aaaaa

#4265
1aaaaa

#4270
0aaaaa

#4275
1aaaaa

#4280
0aaaaa

#4285
1aaaaa

#4290
0aaaaa

#4295
1aaaaa

#4300
0aaaaa

#4305
1aaaaa

#4310
0aaaaa

#4315
1aaaaa

#4320
0aaaaa

#4325
1aaaaa

#4330
0aaaaa

#4335
1aaaaa

#4340
0aaaaa

#4345
1aaaaa

#4350
0aaaaa

#4355
1aaaaa

#4360
0aaaaa

#4365
1aaaaa

#4370
0aaaaa

#4375
1aaaaa

#4380
0aaaaa

#4385
1aaaaa

#4390
0aaaaa

#4395
1aaaaa

#4400
0aaaaa

#4405
1aaaaa

#4410
0aaaaa

#4415
1aaaaa

#4420
0aaaaa

#4425
1aaaaa

#4430
0aaaaa

#4435
1aaaaa

#4440
0aaaaa

#4445
1aaaaa

#4450
0aaaaa

#4455
1aaaaa

#4460
0aaaaa

#4465
1aaaaa

#4470
0aaaaa

#4475
1aaaaa

#4480
0aaaaa

#4485
1aaaaa

#4490
0aaaaa

#4495
1aaaaa

#4500
0aaaaa
b100000000000000 aaaal

#4505
1aaaaa

#4510
0aaaaa

#4515
1aaaaa

#4520
0aaaaa

#4525
1aaaaa

#4530
0aaaaa

#4535
1aaaaa

#4540
0aaaaa

#4545
1aaaaa

#4550
0aaaaa

#4555
1aaaaa

#4560
0aaaaa

#4565
1aaaaa

#4570
0aaaaa

#4575
1aaaaa

#4580
0aaaaa

#4585
1aaaaa

#4590
0aaaaa

#4595
1aaaaa

#4600
0aaaaa

#4605
1aaaaa

#4610
0aaaaa

#4615
1aaaaa

#4620
0aaaaa

#4625
1aaaaa

#4630
0aaaaa

#4635
1aaaaa

#4640
0aaaaa

#4645
1aaaaa

#4650
0aaaaa

#4655
1aaaaa

#4660
0aaaaa

#4665
1aaaaa

#4670
0aaaaa

#4675
1aaaaa

#4680
0aaaaa

#4685
1aaaaa

#4690
0aaaaa

#4695
1aaaaa

#4700
0aaaaa

#4705
1aaaaa

#4710
0aaaaa

#4715
1aaaaa

#4720
0aaaaa

#4725
1aaaaa

#4730
0aaaaa

#4735
1aaaaa

#4740
0aaaaa

#4745
1aaaaa

#4750
0aaaaa

#4755
1aaaaa

#4760
0aaaaa

#4765
1aaaaa

#4770
0aaaaa

#4775
1aaaaa

#4780
0aaaaa

#4785
1aaaaa

#4790
0aaaaa

#4795
1aaaaa

#4800
0aaaaa

#4805
1aaaaa

#4810
0aaaaa

#4815
1aaaaa

#4820
0aaaaa

#4825
1aaaaa

#4830
0aaaaa

#4835
1aaaaa

#4840
0aaaaa

#4845
1aaaaa

#4850
0aaaaa

#4855
1aaaaa

#4860
0aaaaa

#4865
1aaaaa

#4870
0aaaaa

#4875
1aaaaa

#4880
0aaaaa

#4885
1aaaaa

#4890
0aaaaa

#4895
1aaaaa

#4900
0aaaaa

#4905
1aaaaa

#4910
0aaaaa

#4915
1aaaaa

#4920
0aaaaa

#4925
1aaaaa

#4930
0aaaaa

#4935
1aaaaa

#4940
0aaaaa

#4945
1aaaaa

#4950
0aaaaa

#4955
1aaaaa

#4960
0aaaaa

#4965
1aaaaa

#4970
0aaaaa

#4975
1aaaaa

#4980
0aaaaa

#4985
1aaaaa

#4990
0aaaaa

#4995
1aaaaa

#5000
0aaaaa
b10000000000000 aaaal

#5005
1aaaaa

#5010
0aaaaa

#5015
1aaaaa

#5020
0aaaaa

#5025
1aaaaa

#5030
0aaaaa

#5035
1aaaaa

#5040
0aaaaa

#5045
1aaaaa

#5050
0aaaaa

#5055
1aaaaa

#5060
0aaaaa

#5065
1aaaaa

#5070
0aaaaa

#5075
1aaaaa

#5080
0aaaaa

#5085
1aaaaa

#5090
0aaaaa

#5095
1aaaaa

#5100
0aaaaa
b1011110110100 aaaam

#5105
1aaaaa

#5110
0aaaaa

#5115
1aaaaa

#5120
0aaaaa

#5125
1aaaaa

#5130
0aaaaa

#5135
1aaaaa

#5140
0aaaaa

#5145
1aaaaa

#5150
0aaaaa

#5155
1aaaaa

#5160
0aaaaa

#5165
1aaaaa

#5170
0aaaaa

#5175
1aaaaa

#5180
0aaaaa

#5185
1aaaaa

#5190
0aaaaa

#5195
1aaaaa

#5200
0aaaaa
b100000111010111 aaaam

#5205
1aaaaa

#5210
0aaaaa

#5215
1aaaaa

#5220
0aaaaa

#5225
1aaaaa

#5230
0aaaaa

#5235
1aaaaa

#5240
0aaaaa

#5245
1aaaaa

#5250
0aaaaa

#5255
1aaaaa

#5260
0aaaaa

#5265
1aaaaa

#5270
0aaaaa

#5275
1aaaaa

#5280
0aaaaa

#5285
1aaaaa

#5290
0aaaaa

#5295
1aaaaa

#5300
0aaaaa
b110001010011110 aaaam

#5305
1aaaaa

#5310
0aaaaa

#5315
1aaaaa

#5320
0aaaaa

#5325
1aaaaa

#5330
0aaaaa

#5335
1aaaaa

#5340
0aaaaa

#5345
1aaaaa

#5350
0aaaaa

#5355
1aaaaa

#5360
0aaaaa

#5365
1aaaaa

#5370
0aaaaa

#5375
1aaaaa

#5380
0aaaaa

#5385
1aaaaa

#5390
0aaaaa

#5395
1aaaaa

#5400
0aaaaa
b111110000011011 aaaam

#5405
1aaaaa

#5410
0aaaaa

#5415
1aaaaa

#5420
0aaaaa

#5425
1aaaaa

#5430
0aaaaa

#5435
1aaaaa

#5440
0aaaaa

#5445
1aaaaa

#5450
0aaaaa

#5455
1aaaaa

#5460
0aaaaa

#5465
1aaaaa

#5470
0aaaaa

#5475
1aaaaa

#5480
0aaaaa

#5485
1aaaaa

#5490
0aaaaa

#5495
1aaaaa

#5500
0aaaaa
b0 aaaam

