4) RTL and BFM in Systemc/codes and results/outputfile_RTL.vcd
$date
     May 24, 2021       23:36:16
$end

$version
 SystemC 2.3.2-Accellera --- Apr 26 2021 12:25:35
$end

$timescale
     1 ps
$end

$scope module SystemC $end
$var wire    1  aaaaa  clk       $end
$var wire    1  aaaab  rst       $end
$var wire    1  aaaac  push       $end
$var wire    1  aaaad  pop       $end
$var wire    1  aaaae  tos       $end
$var wire   16  aaaaf  dataIN [15:0]  $end
$var wire   16  aaaag  dataOUT [15:0]  $end
$var wire    1  aaaah  memReady       $end
$var wire    1  aaaai  readMem       $end
$var wire    1  aaaaj  writeMem       $end
$var wire    1  aaaak  full       $end
$var wire    1  aaaal  empty       $end
$var wire    9  aaaam  tosAddress [8:0]  $end
$upscope $end
$enddefinitions  $end

$comment
All initial values are dumped below at time 0 sec = 0 timescale units.
$end

$dumpvars
0aaaaa
1aaaab
xaaaac
xaaaad
xaaaae
bXXXXXXXXXXXXXXXX aaaaf
bZZZZZZZZZZZZZZZZ aaaag
0aaaah
0aaaai
0aaaaj
0aaaak
1aaaal
b111111111 aaaam
$end

#11000
0aaaab

#20000
1aaaaa

#40000
0aaaaa

#50000
1aaaad

#60000
1aaaaa

#80000
0aaaaa

#100000
1aaaaa
1aaaac
0aaaad
b1011 aaaaf

#120000
0aaaaa

#140000
1aaaaa
1aaaaj
0aaaal
b0 aaaam

#145000
0aaaac

#160000
0aaaaa

#180000
1aaaaa

#200000
0aaaaa

#220000
1aaaaa

#240000
0aaaaa

#260000
1aaaaa

#280000
0aaaaa

#300000
1aaaaa
1aaaah

#320000
0aaaaa

#340000
1aaaaa
0aaaah
0aaaaj

#360000
0aaaaa

#380000
1aaaaa

#395000
1aaaae

#400000
0aaaaa

#420000
1aaaaa
1aaaai

#435000
0aaaae

#440000
0aaaaa

#460000
1aaaaa

#480000
0aaaaa

#500000
1aaaaa

#520000
0aaaaa

#540000
1aaaaa

#560000
0aaaaa

#580000
1aaaaa
b1011 aaaag
1aaaah

#600000
0aaaaa

#620000
1aaaaa
bZZZZZZZZZZZZZZZZ aaaag
0aaaah
0aaaai

#640000
0aaaaa

#660000
1aaaaa

#680000
0aaaaa

#700000
1aaaaa

#720000
0aaaaa

#740000
1aaaaa

#760000
0aaaaa

#780000
1aaaaa

#800000
0aaaaa

#820000
1aaaaa

#840000
0aaaaa

#860000
1aaaaa

#880000
0aaaaa

#900000
1aaaaa

#920000
0aaaaa

#935000
1aaaad

#940000
1aaaaa
1aaaai

#960000
0aaaaa

#975000
0aaaad

#980000
1aaaaa

#1000000
0aaaaa

#1020000
1aaaaa

#1040000
0aaaaa

#1060000
1aaaaa

#1080000
0aaaaa

#1100000
1aaaaa
b1011 aaaag
1aaaah

#1120000
0aaaaa

#1140000
1aaaaa
bZZZZZZZZZZZZZZZZ aaaag
0aaaah
0aaaai
1aaaal
b111111111 aaaam

#1160000
0aaaaa

#1180000
1aaaaa

#1200000
0aaaaa

#1220000
1aaaaa

#1225000
1aaaac
b1010 aaaaf

#1240000
0aaaaa

#1260000
1aaaaa
1aaaaj
0aaaal
b0 aaaam

#1265000
0aaaac

#1280000
0aaaaa

#1300000
1aaaaa

#1320000
0aaaaa

#1340000
1aaaaa

#1360000
0aaaaa

#1380000
1aaaaa

#1400000
0aaaaa

#1420000
1aaaaa
1aaaah

#1440000
0aaaaa

#1460000
1aaaaa
0aaaah
0aaaaj

#1480000
0aaaaa

#1500000
1aaaaa

#1515000
1aaaac
b1001 aaaaf

#1520000
0aaaaa

#1540000
1aaaaa
1aaaaj
b1 aaaam

#1555000
0aaaac

#1560000
0aaaaa

#1580000
1aaaaa

#1600000
0aaaaa

#1620000
1aaaaa

#1640000
0aaaaa

#1660000
1aaaaa

#1680000
0aaaaa

#1700000
1aaaaa
1aaaah

#1720000
0aaaaa

#1740000
1aaaaa
0aaaah
0aaaaj

#1760000
0aaaaa

#1780000
1aaaaa

#1800000
0aaaaa

#1805000
1aaaac
b1000 aaaaf

#1820000
1aaaaa
1aaaaj
b10 aaaam

#1840000
0aaaaa

#1845000
0aaaac

#1860000
1aaaaa

#1880000
0aaaaa

#1900000
1aaaaa

#1920000
0aaaaa

#1940000
1aaaaa

#1960000
0aaaaa

#1980000
1aaaaa
1aaaah

#2000000
0aaaaa

#2020000
1aaaaa
0aaaah
0aaaaj

#2040000
0aaaaa

#2060000
1aaaaa

#2080000
0aaaaa

#2095000
1aaaac
b111 aaaaf

#2100000
1aaaaa
1aaaaj
b11 aaaam

#2120000
0aaaaa

#2135000
0aaaac

#2140000
1aaaaa

#2160000
0aaaaa

#2180000
1aaaaa

#2200000
0aaaaa

#2220000
1aaaaa

#2240000
0aaaaa

#2260000
1aaaaa
1aaaah

#2280000
0aaaaa

#2300000
1aaaaa
0aaaah
0aaaaj

#2320000
0aaaaa

#2340000
1aaaaa

#2360000
0aaaaa

#2380000
1aaaaa

#2385000
1aaaad

#2400000
0aaaaa

#2420000
1aaaaa
1aaaai

#2425000
0aaaad

#2440000
0aaaaa

#2460000
1aaaaa

#2480000
0aaaaa

#2500000
1aaaaa

#2520000
0aaaaa

#2540000
1aaaaa

#2560000
0aaaaa

#2580000
1aaaaa
b111 aaaag
1aaaah

#2600000
0aaaaa

#2620000
1aaaaa
bZZZZZZZZZZZZZZZZ aaaag
0aaaah
0aaaai
b10 aaaam

#2640000
0aaaaa

#2660000
1aaaaa

#2675000
1aaaad

#2680000
0aaaaa

#2700000
1aaaaa
b111 aaaag
1aaaai

#2715000
0aaaad

#2720000
0aaaaa

#2740000
1aaaaa
b1000 aaaag

#2760000
0aaaaa

#2780000
1aaaaa

#2800000
0aaaaa

#2820000
1aaaaa

#2840000
0aaaaa

#2860000
1aaaaa
1aaaah

#2880000
0aaaaa

#2900000
1aaaaa
bZZZZZZZZZZZZZZZZ aaaag
0aaaah
0aaaai
b1 aaaam

#2920000
0aaaaa

#2940000
1aaaaa

#2960000
0aaaaa

#2965000
1aaaad

#2980000
1aaaaa
1aaaai

#3000000
0aaaaa

#3005000
0aaaad

#3020000
1aaaaa

#3040000
0aaaaa

#3060000
1aaaaa

#3080000
0aaaaa

#3100000
1aaaaa

#3120000
0aaaaa

#3140000
1aaaaa
b1001 aaaag
1aaaah

#3160000
0aaaaa

#3180000
1aaaaa
bZZZZZZZZZZZZZZZZ aaaag
0aaaah
0aaaai
b0 aaaam

#3200000
0aaaaa

#3220000
1aaaaa

#3240000
0aaaaa

#3255000
1aaaac
b110 aaaaf

#3260000
1aaaaa
1aaaaj
b1 aaaam

#3280000
0aaaaa

#3295000
0aaaac

#3300000
1aaaaa

#3320000
0aaaaa

#3340000
1aaaaa

#3360000
0aaaaa

#3380000
1aaaaa

#3400000
0aaaaa

#3420000
1aaaaa
1aaaah

#3440000
0aaaaa

#3460000
1aaaaa
0aaaah
0aaaaj

#3480000
0aaaaa

#3500000
1aaaaa

#3520000
0aaaaa

#3540000
1aaaaa

#3545000
1aaaae

#3560000
0aaaaa

#3580000
1aaaaa
1aaaai

#3585000
0aaaae

#3600000
0aaaaa

#3620000
1aaaaa

#3635000
1aaaad

#3640000
0aaaaa

#3660000
1aaaaa

#3680000
0aaaaa

#3685000
1aaaac
0aaaad
b1011 aaaaf

#3700000
1aaaaa

#3720000
0aaaaa

#3730000
0aaaac

#3740000
1aaaaa
b110 aaaag
1aaaah

#3760000
0aaaaa

#3780000
1aaaaa
bZZZZZZZZZZZZZZZZ aaaag
0aaaah
0aaaai

#3800000
0aaaaa

#3820000
1aaaaa

#3840000
0aaaaa

#3860000
1aaaaa

#3880000
0aaaaa

#3900000
1aaaaa

#3920000
0aaaaa

#3940000
1aaaaa

#3960000
0aaaaa

#3980000
1aaaaa
1aaaae

#4000000
0aaaaa

#4020000
1aaaaa
0aaaae
1aaaai

#4040000
0aaaaa

#4060000
1aaaaa

#4080000
0aaaaa

#4100000
1aaaaa

#4120000
0aaaaa

#4140000
1aaaaa

#4160000
0aaaaa

#4180000
1aaaaa
b110 aaaag
1aaaah

#4200000
0aaaaa

#4220000
1aaaaa
bZZZZZZZZZZZZZZZZ aaaag
0aaaah
0aaaai

