4) RTL and BFM in Systemc/codes and results/outputfile_BOTH.vcd
$date
     May 24, 2021       23:36:16
$end

$version
 SystemC 2.3.2-Accellera --- Apr 26 2021 12:25:35
$end

$timescale
     1 ps
$end

$scope module SystemC $end
$var wire    1  aaaaa  clk       $end
$var wire    1  aaaab  rst       $end
$var wire    1  aaaac  push       $end
$var wire    1  aaaad  pop       $end
$var wire    1  aaaae  tos       $end
$var wire   16  aaaaf  dataIN [15:0]  $end
$var wire   16  aaaag  dataOUT1 [15:0]  $end
$var wire   16  aaaah  dataOUT2 [15:0]  $end
$var wire    1  aaaai  memReady1       $end
$var wire    1  aaaaj  readMem1       $end
$var wire    1  aaaak  writeMem1       $end
$var wire    1  aaaal  full1       $end
$var wire    1  aaaam  empty1       $end
$var wire    1  aaaan  memReady2       $end
$var wire    1  aaaao  readMem2       $end
$var wire    1  aaaap  writeMem2       $end
$var wire    1  aaaaq  full2       $end
$var wire    1  aaaar  empty2       $end
$var wire    9  aaaas  tosAddress2 [8:0]  $end
$var wire    9  aaaat  tosAddress1 [8:0]  $end
$upscope $end
$enddefinitions  $end

$comment
All initial values are dumped below at time 0 sec = 0 timescale units.
$end

$dumpvars
0aaaaa
1aaaab
xaaaac
xaaaad
xaaaae
bXXXXXXXXXXXXXXXX aaaaf
bZZZZZZZZZZZZZZZZ aaaag
bXXXXXXXXXXXXXXXX aaaah
0aaaai
0aaaaj
0aaaak
0aaaal
1aaaam
0aaaan
0aaaao
0aaaap
0aaaaq
1aaaar
b111111111 aaaas
b111111111 aaaat
$end

#20000
1aaaaa
0aaaab

#40000
0aaaaa

#50000
1aaaad

#60000
1aaaaa

#80000
0aaaaa

#100000
1aaaaa
1aaaac
0aaaad
b1100 aaaaf
1aaaap
0aaaar
b0 aaaas

#120000
0aaaaa

#140000
1aaaaa
1aaaak
0aaaam
b0 aaaat

#145000
0aaaac

#160000
0aaaaa

#180000
1aaaaa

#200000
0aaaaa

#220000
1aaaaa

#240000
0aaaaa

#260000
1aaaaa
1aaaan

#280000
0aaaaa

#300000
1aaaaa
1aaaai
0aaaan
0aaaap

#320000
0aaaaa

#340000
1aaaaa
0aaaai
0aaaak

#360000
0aaaaa

#380000
1aaaaa

#395000
1aaaae

#400000
0aaaaa

#420000
1aaaaa
1aaaaj
1aaaao

#435000
0aaaae

#440000
0aaaaa

#460000
1aaaaa

#480000
0aaaaa

#500000
1aaaaa

#520000
0aaaaa

#540000
1aaaaa

#560000
0aaaaa

#580000
1aaaaa
b1100 aaaag
b1100 aaaah
1aaaai
1aaaan

#600000
0aaaaa

#620000
1aaaaa
bZZZZZZZZZZZZZZZZ aaaag
0aaaai
0aaaaj
0aaaan
0aaaao

#640000
0aaaaa

#660000
1aaaaa

#680000
0aaaaa

#685000
1aaaac
b101 aaaaf

#700000
1aaaaa
1aaaak
1aaaap
b1 aaaas
b1 aaaat

#720000
0aaaaa

#725000
0aaaac

#740000
1aaaaa

#760000
0aaaaa

#780000
1aaaaa

#800000
0aaaaa

#820000
1aaaaa

#840000
0aaaaa

#860000
1aaaaa
1aaaai
1aaaan

#880000
0aaaaa

#900000
1aaaaa
0aaaai
0aaaak
0aaaan
0aaaap

#920000
0aaaaa

#940000
1aaaaa

#960000
0aaaaa

#975000
1aaaad

#980000
1aaaaa
1aaaaj
1aaaao

#1000000
0aaaaa

#1015000
0aaaad

#1020000
1aaaaa

#1040000
0aaaaa

#1060000
1aaaaa

#1080000
0aaaaa

#1100000
1aaaaa

#1120000
0aaaaa

#1140000
1aaaaa
b101 aaaag
b101 aaaah
1aaaai
1aaaan
b0 aaaas

#1160000
0aaaaa

#1180000
1aaaaa
bZZZZZZZZZZZZZZZZ aaaag
0aaaai
0aaaaj
0aaaan
0aaaao
b0 aaaat

#1200000
0aaaaa

#1220000
1aaaaa

#1240000
0aaaaa

#1260000
1aaaaa

#1265000
1aaaac
b110 aaaaf

#1280000
0aaaaa

#1300000
1aaaaa
1aaaak
1aaaap
b1 aaaas
b1 aaaat

#1305000
0aaaac

#1320000
0aaaaa

#1340000
1aaaaa

#1360000
0aaaaa

#1380000
1aaaaa

#1400000
0aaaaa

#1420000
1aaaaa

#1440000
0aaaaa

#1460000
1aaaaa
1aaaai
1aaaan

#1480000
0aaaaa

#1500000
1aaaaa
0aaaai
0aaaak
0aaaan
0aaaap

#1520000
0aaaaa

#1540000
1aaaaa

#1555000
1aaaac
b111 aaaaf

#1560000
0aaaaa

#1580000
1aaaaa
1aaaak
1aaaap
b10 aaaas
b10 aaaat

#1595000
0aaaac

#1600000
0aaaaa

#1620000
1aaaaa

#1640000
0aaaaa

#1660000
1aaaaa

#1680000
0aaaaa

#1700000
1aaaaa

#1720000
0aaaaa

#1740000
1aaaaa
1aaaai
1aaaan

#1760000
0aaaaa

#1780000
1aaaaa
0aaaai
0aaaak
0aaaan
0aaaap

#1800000
0aaaaa

#1820000
1aaaaa

#1840000
0aaaaa

#1845000
1aaaac
b1000 aaaaf

#1860000
1aaaaa
1aaaak
1aaaap
b11 aaaas
b11 aaaat

#1880000
0aaaaa

#1885000
0aaaac

#1900000
1aaaaa

#1920000
0aaaaa

#1940000
1aaaaa

#1960000
0aaaaa

#1980000
1aaaaa

#2000000
0aaaaa

#2020000
1aaaaa
1aaaai
1aaaan

#2040000
0aaaaa

#2060000
1aaaaa
0aaaai
0aaaak
0aaaan
0aaaap

#2080000
0aaaaa

#2100000
1aaaaa

#2120000
0aaaaa

#2135000
1aaaad

#2140000
1aaaaa
1aaaaj
1aaaao

#2160000
0aaaaa

#2175000
0aaaad

#2180000
1aaaaa

#2200000
0aaaaa

#2220000
1aaaaa

#2240000
0aaaaa

#2260000
1aaaaa

#2280000
0aaaaa

#2300000
1aaaaa
b1000 aaaag
b1000 aaaah
1aaaai
1aaaan
b10 aaaas

#2320000
0aaaaa

#2340000
1aaaaa
bZZZZZZZZZZZZZZZZ aaaag
0aaaai
0aaaaj
0aaaan
0aaaao
b10 aaaat

#2360000
0aaaaa

#2380000
1aaaaa

#2400000
0aaaaa

#2420000
1aaaaa

#2425000
1aaaac
b10100 aaaaf

#2440000
0aaaaa

#2460000
1aaaaa
1aaaak
1aaaap
b11 aaaas
b11 aaaat

#2465000
0aaaac

#2480000
0aaaaa

#2500000
1aaaaa

#2520000
0aaaaa

#2540000
1aaaaa

#2560000
0aaaaa

#2580000
1aaaaa

#2600000
0aaaaa

#2620000
1aaaaa
1aaaai
1aaaan

#2640000
0aaaaa

#2660000
1aaaaa
0aaaai
0aaaak
0aaaan
0aaaap

#2680000
0aaaaa

#2700000
1aaaaa

#2715000
1aaaad

#2720000
0aaaaa

#2740000
1aaaaa
1aaaaj
1aaaao

#2755000
0aaaad

#2760000
0aaaaa

#2780000
1aaaaa

#2800000
0aaaaa

#2820000
1aaaaa

#2840000
0aaaaa

#2860000
1aaaaa

#2880000
0aaaaa

#2900000
1aaaaa
b10100 aaaag
b10100 aaaah
1aaaai
1aaaan
b10 aaaas

#2920000
0aaaaa

#2940000
1aaaaa
bZZZZZZZZZZZZZZZZ aaaag
0aaaai
0aaaaj
0aaaan
0aaaao
b10 aaaat

#2960000
0aaaaa

#2980000
1aaaaa

#3000000
0aaaaa

#3005000
1aaaac
b101000 aaaaf

#3020000
1aaaaa
1aaaak
1aaaap
b11 aaaas
b11 aaaat

#3040000
0aaaaa

#3045000
0aaaac

#3060000
1aaaaa

#3080000
0aaaaa

#3100000
1aaaaa

#3120000
0aaaaa

#3140000
1aaaaa

#3160000
0aaaaa

#3180000
1aaaaa
1aaaai
1aaaan

#3200000
0aaaaa

#3220000
1aaaaa
0aaaai
0aaaak
0aaaan
0aaaap

#3240000
0aaaaa

#3260000
1aaaaa

#3280000
0aaaaa

#3295000
1aaaae

#3300000
1aaaaa
1aaaaj
1aaaao

#3320000
0aaaaa

#3335000
0aaaae

#3340000
1aaaaa

#3360000
0aaaaa

#3380000
1aaaaa

#3400000
0aaaaa

#3420000
1aaaaa

#3440000
0aaaaa

#3460000
1aaaaa
b101000 aaaag
b101000 aaaah
1aaaai
1aaaan

#3480000
0aaaaa

#3500000
1aaaaa
bZZZZZZZZZZZZZZZZ aaaag
0aaaai
0aaaaj
0aaaan
0aaaao

