4) RTL and BFM in Systemc/codes and results/outputfile_BFM.vcd
$date
     May 24, 2021       23:36:16
$end

$version
 SystemC 2.3.2-Accellera --- Apr 26 2021 12:25:35
$end

$timescale
     1 ps
$end

$scope module SystemC $end
$var wire    1  aaaaa  clk       $end
$var wire    1  aaaab  rst       $end
$var wire    1  aaaac  push       $end
$var wire    1  aaaad  pop       $end
$var wire    1  aaaae  tos       $end
$var wire   16  aaaaf  dataIN [15:0]  $end
$var wire   16  aaaag  dataOUT [15:0]  $end
$var wire    1  aaaah  memReady       $end
$var wire    1  aaaai  readMem       $end
$var wire    1  aaaaj  writeMem       $end
$var wire    1  aaaak  full       $end
$var wire    1  aaaal  empty       $end
$var wire    9  aaaam  tosAddress [8:0]  $end
$upscope $end
$enddefinitions  $end

$comment
All initial values are dumped below at time 0 sec = 0 timescale units.
$end

$dumpvars
0aaaaa
1aaaab
xaaaac
xaaaad
xaaaae
bXXXXXXXXXXXXXXXX aaaaf
bXXXXXXXXXXXXXXXX aaaag
0aaaah
0aaaai
0aaaaj
0aaaak
1aaaal
b111111111 aaaam
$end

#20000
1aaaaa
0aaaab

#40000
0aaaaa

#50000
1aaaad

#60000
1aaaaa

#80000
0aaaaa

#100000
1aaaaa
1aaaac
0aaaad
b1100 aaaaf
1aaaaj
0aaaal
b0 aaaam

#105000
1aaaae

#120000
0aaaaa

#140000
1aaaaa

#145000
0aaaac

#160000
0aaaaa

#180000
1aaaaa

#200000
0aaaaa

#220000
1aaaaa

#240000
0aaaaa

#260000
1aaaaa
1aaaah

#280000
0aaaaa

#300000
1aaaaa
0aaaah
1aaaai
0aaaaj

#320000
0aaaaa

#340000
1aaaaa

#360000
0aaaaa

#380000
1aaaaa

#400000
0aaaaa

#420000
1aaaaa

#435000
0aaaae

#440000
0aaaaa

#460000
1aaaaa
b1100 aaaag
1aaaah

#480000
0aaaaa

#500000
1aaaaa
0aaaah
0aaaai

#520000
0aaaaa

#540000
1aaaaa

#560000
0aaaaa

#580000
1aaaaa

#600000
0aaaaa

#620000
1aaaaa

#640000
0aaaaa

#660000
1aaaaa

#680000
0aaaaa

#685000
1aaaac
b101 aaaaf

#700000
1aaaaa
1aaaaj
b1 aaaam

#720000
0aaaaa

#725000
0aaaac

#740000
1aaaaa

#760000
0aaaaa

#780000
1aaaaa

#800000
0aaaaa

#820000
1aaaaa

#840000
0aaaaa

#860000
1aaaaa
1aaaah

#880000
0aaaaa

#900000
1aaaaa
0aaaah
0aaaaj

#920000
0aaaaa

#940000
1aaaaa

#960000
0aaaaa

#975000
1aaaad

#980000
1aaaaa
1aaaai

#1000000
0aaaaa

#1015000
0aaaad

#1020000
1aaaaa

#1040000
0aaaaa

#1060000
1aaaaa

#1080000
0aaaaa

#1100000
1aaaaa

#1120000
0aaaaa

#1140000
1aaaaa
b101 aaaag
1aaaah
b0 aaaam

#1160000
0aaaaa

#1180000
1aaaaa
0aaaah
0aaaai

#1200000
0aaaaa

#1220000
1aaaaa

#1240000
0aaaaa

#1260000
1aaaaa

#1265000
1aaaac
b110 aaaaf

#1280000
0aaaaa

#1300000
1aaaaa
1aaaaj
b1 aaaam

#1305000
0aaaac

#1320000
0aaaaa

#1340000
1aaaaa

#1360000
0aaaaa

#1380000
1aaaaa

#1400000
0aaaaa

#1420000
1aaaaa

#1440000
0aaaaa

#1460000
1aaaaa
1aaaah

#1480000
0aaaaa

#1500000
1aaaaa
0aaaah
0aaaaj

#1520000
0aaaaa

#1540000
1aaaaa

#1555000
1aaaac
b111 aaaaf

#1560000
0aaaaa

#1580000
1aaaaa
1aaaaj
b10 aaaam

#1595000
0aaaac

#1600000
0aaaaa

#1620000
1aaaaa

#1640000
0aaaaa

#1660000
1aaaaa

#1680000
0aaaaa

#1700000
1aaaaa

#1720000
0aaaaa

#1740000
1aaaaa
1aaaah

#1760000
0aaaaa

#1780000
1aaaaa
0aaaah
0aaaaj

#1800000
0aaaaa

#1820000
1aaaaa

#1840000
0aaaaa

#1845000
1aaaac
b1000 aaaaf

#1860000
1aaaaa
1aaaaj
b11 aaaam

#1880000
0aaaaa

#1885000
0aaaac

#1900000
1aaaaa

#1920000
0aaaaa

#1940000
1aaaaa

#1960000
0aaaaa

#1980000
1aaaaa

#2000000
0aaaaa

#2020000
1aaaaa
1aaaah

#2040000
0aaaaa

#2060000
1aaaaa
0aaaah
0aaaaj

#2080000
0aaaaa

#2100000
1aaaaa

#2120000
0aaaaa

#2135000
1aaaad

#2140000
1aaaaa
1aaaai

#2160000
0aaaaa

#2175000
0aaaad

#2180000
1aaaaa

#2200000
0aaaaa

#2220000
1aaaaa

#2240000
0aaaaa

#2260000
1aaaaa

#2280000
0aaaaa

#2300000
1aaaaa
b1000 aaaag
1aaaah
b10 aaaam

#2320000
0aaaaa

#2340000
1aaaaa
0aaaah
0aaaai

#2360000
0aaaaa

#2380000
1aaaaa

#2400000
0aaaaa

#2420000
1aaaaa

#2425000
1aaaac
b10100 aaaaf

#2440000
0aaaaa

#2460000
1aaaaa
1aaaaj
b11 aaaam

#2465000
0aaaac

#2480000
0aaaaa

#2500000
1aaaaa

#2520000
0aaaaa

#2540000
1aaaaa

#2560000
0aaaaa

#2580000
1aaaaa

#2600000
0aaaaa

#2620000
1aaaaa
1aaaah

#2640000
0aaaaa

#2660000
1aaaaa
0aaaah
0aaaaj

#2680000
0aaaaa

#2700000
1aaaaa

#2715000
1aaaad

#2720000
0aaaaa

#2740000
1aaaaa
1aaaai

#2755000
0aaaad

#2760000
0aaaaa

#2780000
1aaaaa

#2800000
0aaaaa

#2820000
1aaaaa

#2840000
0aaaaa

#2860000
1aaaaa

#2880000
0aaaaa

#2900000
1aaaaa
b10100 aaaag
1aaaah
b10 aaaam

#2920000
0aaaaa

#2940000
1aaaaa
0aaaah
0aaaai

#2960000
0aaaaa

#2980000
1aaaaa

#3000000
0aaaaa

#3005000
1aaaac
b101000 aaaaf

#3020000
1aaaaa
1aaaaj
b11 aaaam

#3040000
0aaaaa

#3045000
0aaaac

#3060000
1aaaaa

#3080000
0aaaaa

#3100000
1aaaaa

#3120000
0aaaaa

#3140000
1aaaaa

#3160000
0aaaaa

#3180000
1aaaaa
1aaaah

#3200000
0aaaaa

#3220000
1aaaaa
0aaaah
0aaaaj

#3240000
0aaaaa

#3260000
1aaaaa

#3280000
0aaaaa

#3295000
1aaaae

#3300000
1aaaaa
1aaaai

#3320000
0aaaaa

#3335000
0aaaae

#3340000
1aaaaa

#3360000
0aaaaa

#3380000
1aaaaa

#3400000
0aaaaa

#3420000
1aaaaa

#3440000
0aaaaa

#3460000
1aaaaa
b101000 aaaag
1aaaah

#3480000
0aaaaa

#3500000
1aaaaa
0aaaah
0aaaai

